Place,Name,State,WeightClassKg,BodyweightKg,Age,Best3SquatKg,Best3BenchKg,Best3DeadliftKg,TotalKg,Sex,Division,Equipment,Bench4Kg,Event
1,Mya Montrella,AL,67.5,67,17,92.5,42.5,105,240,F,Juniors 16-17,Raw,,SBD
1,Amanda Walker #1,MS,67.5,63.59,22,105,65,110,280,F,Juniors 20-23,Raw,,SBD
1,Julie Hardy,AL,67.5,65.27,31,90,55,137.5,282.5,F,Open,Raw,,SBD
1,Amanda Torres #1,AL,75,74.48,23,117.5,57.5,155,330,F,Open,Raw,,SBD
2,Cameron Bass,AL,75,74.66,24,115,60,155,330,F,Open,Raw,,SBD
1,Melanie Douglas,AL,82.5,82.1,29,122.5,70,170,362.5,F,Open,Raw,,SBD
2,Kayla Lindsay,VA,82.5,81.28,26,120,67.5,157.5,345,F,Open,Raw,,SBD
1,Jennifer Nash,AL,75,74.89,36,82.5,82.5,137.5,302.5,F,Submasters 35-39,Raw,,SBD
1,Brandon Maddox #1,AL,75,69.7,22,215,185,247.5,647.5,M,Juniors 20-23,Raw,187.5,SBD
2,Demetrious Luter,MS,75,74.62,20,160,105,205,470,M,Juniors 20-23,Raw,,SBD
1,Seth Strickland,AL,82.5,80.5,16,207.5,135,245,587.5,M,Juniors 16-17,Raw,,SBD
1,De'Marquez Braylock,AL,90,86.18,15,207.5,115,227.5,550,M,Juniors 13-15,Raw,,SBD
1,Jeff Lawrence,AL,90,89.9,21,197.5,150,287.5,635,M,Juniors 20-23,Raw,,SBD
2,Joey Reid #2,AL,90,89.9,23,192.5,170,250,612.5,M,Juniors 20-23,Raw,,SBD
3,Kyle Travis,MS,90,88.5,23,195,155,245,595,M,Juniors 20-23,Raw,,SBD
4,Carson Windle,AL,90,89.27,20,197.5,127.5,222.5,547.5,M,Juniors 20-23,Raw,,SBD
5,Alex Ashby,AL,90,89.09,22,172.5,105,227.5,505,M,Juniors 20-23,Raw,,SBD
1,Aaron Fenton,AL,100,97.2,20,155,107.5,212.5,475,M,Juniors 20-23,Raw,,SBD
1,Clay Criswell,AL,110,102.6,20,175,145,205,525,M,Juniors 20-23,Raw,,SBD
1,David Courtney #1,MS,125,120.8,23,195,195,262.5,652.5,M,Juniors 20-23,Raw,,SBD
1,Brandon Maddox #1,AL,75,69.7,22,215,185,247.5,647.5,M,Open,Raw,187.5,SBD
1,Barry Gladney,MS,75,73.6,27,127.5,150,182.5,460,M,Open,Raw,,SBD
1,Seth Strickland,AL,82.5,80.5,16,207.5,135,245,587.5,M,Open,Raw,,SBD
2,Tyler Williams,AL,82.5,82.46,28,195,125,240,560,M,Open,Raw,,SBD
3,Shane Davis,AL,82.5,81.19,21,192.5,130,215,537.5,M,Open,Raw,,SBD
4,Adam Quattlebaum,AL,82.5,82.46,33,175,127.5,227.5,530,M,Open,Raw,,SBD
1,Yarnell Marks,MS,90,89.8,37,255,170,245,670,M,Open,Raw,,SBD
1,Tyler Campbell,AL,100,99.97,25,245,185,272.5,702.5,M,Open,Raw,,SBD
2,Marvin Brand,AL,100,95.71,29,192.5,162.5,250,605,M,Open,Raw,,SBD
3,Ryan Crutchfield,AL,100,98.38,26,217.5,142.5,235,595,M,Open,Raw,,SBD
4,Steven Sparks,AL,100,99.7,28,190,125,240,555,M,Open,Raw,,SBD
1,Sherrod Bowens,MS,110,107.68,27,252.5,182.5,265,700,M,Open,Raw,,SBD
1,Josh Cleveland,LA,125,120,24,295,172.5,320,787.5,M,Open,Raw,,SBD
1,Eric Adams #3,MS,140+,141.2,26,250,207.5,282.5,740,M,Open,Raw,,SBD
1,Frank Russo,LA,90,89.2,38,190,137.5,257.5,585,M,Submasters 35-39,Raw,,SBD
1,Caley Smith,AL,60,59.96,23,142.5,70,152.5,365,F,Juniors 20-23,Wraps,,SBD
1,Macy Armstrong,AL,90,87,28,197.5,110,200,507.5,F,Open,Wraps,,SBD
1,Christie Hopper,AL,52,50.7,41,67.5,47.5,95,210,F,Masters 40-44,Wraps,,SBD
1,Kim Townsel,AL,56,55.79,55,62.5,40,85,187.5,F,Masters 55-59,Wraps,,SBD
1,Kyreecus Welch,MS,67.5,66.1,20,170,112.5,190,472.5,M,Juniors 20-23,Wraps,,SBD
1,Andrew Carney,AL,75,69.4,15,105,90,152.5,347.5,M,Juniors 13-15,Wraps,,SBD
1,Chris Getzewich,AL,90,88.5,22,182.5,117.5,232.5,532.5,M,Juniors 20-23,Wraps,,SBD
1,Jarrett Smith,AL,100,96.7,21,225,135,240,600,M,Juniors 20-23,Wraps,,SBD
2,Cody Kruse,AL,100,96.16,20,160,117.5,170,447.5,M,Juniors 20-23,Wraps,,SBD
1,Craig Manley,AL,110,107.46,20,197.5,115,227.5,540,M,Juniors 20-23,Wraps,,SBD
1,Nathan Miller #3,AL,82.5,81.1,25,202.5,140,217.5,560,M,Open,Wraps,,SBD
1,Dusty Smith,AL,90,89.58,33,260,190,290,740,M,Open,Wraps,,SBD
2,Joseph McDaniel,AL,90,89.9,29,212.5,155,227.5,595,M,Open,Wraps,,SBD
1,Beau Reyer,AL,100,96.4,24,227.5,147.5,237.5,612.5,M,Open,Wraps,,SBD
1,Steven Vinet,LA,125,114.2,28,272.5,217.5,282.5,772.5,M,Open,Wraps,,SBD
2,Triston Barrios,LA,125,112.58,27,195,152.5,220,567.5,M,Open,Wraps,,SBD
1,Johnny Ray Battles,AL,140,135.9,24,215,142.5,272.5,630,M,Open,Wraps,,SBD
1,Gary Johnson,AL,75,73.6,63,95,72.5,130,297.5,M,Masters 60-64,Wraps,,SBD
1,Curtis Hubbard,AL,75,74.3,66,127.5,77.5,165,370,M,Masters 65-69,Wraps,,SBD
1,Riley Burrows,AL,100,96.7,21,345,250,290,885,M,Juniors 20-23,Multi-ply,,SBD
1,Logan Weeks,AL,125,122.38,21,325,235,305,865,M,Juniors 20-23,Multi-ply,,SBD
1,Dantley Coker,AL,110,102.8,19,,157.5,,157.5,M,Juniors 18-19,Raw,,B
1,Brent Culver,AL,110,110,23,,125,,125,M,Juniors 20-23,Raw,,B
1,Hunter Zuchelli,AL,125,115.3,14,,85,,85,M,Juniors 13-15,Raw,,B
1,Dustin Gamblin,AL,100,99.4,26,,140,,140,M,Open,Raw,,B
1,Michael McDonald,AL,125,112.49,27,,240,,240,M,Open,Raw,,B
2,Eric Downey,LA,125,111.1,36,,235,,235,M,Open,Raw,,B
3,Jonathan Byler,AL,125,115.1,26,,200,,200,M,Open,Raw,,B
1,Delvin Hall,AL,100,97.7,36,,182.5,,182.5,M,Submasters 35-39,Raw,,B
1,Eric Smith #6,AL,100,98,48,,197.5,,197.5,M,Masters 45-49,Raw,,B
1,Darryl Zuchelli,AL,110,103.6,39,,235,,235,M,Submasters 35-39,Single-ply,,B
1,Dantley Coker,AL,110,102.8,19,,,227.5,227.5,M,Juniors 18-19,Raw,,D
1,Brent Culver,AL,110,110,23,,,215,215,M,Juniors 20-23,Raw,,D
1,Hunter Zuchelli,AL,125,115.3,14,,,147.5,147.5,M,Juniors 13-15,Raw,,D
1,Phil Duke,AL,75,75,28,,,215,215,M,Open,Raw,,D
1,Nicholas Donte McCoy,AL,110,108.5,30,,,272.5,272.5,M,Open,Raw,,D
1,Matt Maini,AL,110,110,46,,,227.5,227.5,M,Masters 45-49,Raw,,D
1,Richard Hagedorn,AL,82.5,82.5,61,,,232.5,232.5,M,Masters 60-64,Single-ply,,D
